1.3.2: Data Wrangling – R Training - TIDAL Lectures
…
This is not a very large dataset - mydata has 21 rows (or observations) and 14 variables (or columns). So, we could view the whole thing by printing it to the “Console” window.

You’ll notice that depending on the size of your current “Console” window, font size, zoom settings and more, what you see may vary. Since we read this dataset in using the readr package, the data object is now a “tibble” dataframe which only shows the columns and rows that will reasonably show up in your “Console” window.

And the output below also lists what kind of column each variable is. For example,

Age is a <dbl> indicating it is a numeric variable saved using double-precision, whereas

GenderSTR is <chr> indicating this is a text or character (or “string”) type variable.

# print the dataset into the Console
mydata

# A tibble: 21 × 14
   SubjectID   Age WeightPRE WeightPOST Height   SES GenderSTR GenderCoded    q1
       <dbl> <dbl>     <dbl>      <dbl>  <dbl> <dbl> <chr>           <dbl> <dbl>
 1         1    45        68        145    5.6     9 m                   1     4
 2         2    50       167        166    5.4     2 f                   2     3
 3         3    35       143        135    5.6     2 <NA>               NA     3
 4         4    44       216        201    5.6     2 m                   1     4
 5         5    32       243        223    6       2 m                   1     5
 6         6    48       165        145    5.2     2 f                   2     2
 7         8    50        60        132    3.3     2 m                   1     3
 8         9    51       110        108    5.1     3 f                   2     1
 9        12    46       167        158    5.5     2 F                   2     1
10        14    35       190        200    5.8     1 Male                1     4
# ℹ 11 more rows
# ℹ 5 more variables: q2 <dbl>, q3 <dbl>, q4 <dbl>, q5 <dbl>, q6 <dbl>
…
# show all of rows 1-2
mydata[1:2, ]

# A tibble: 2 × 14
  SubjectID   Age WeightPRE WeightPOST Height   SES GenderSTR GenderCoded    q1
      <dbl> <dbl>     <dbl>      <dbl>  <dbl> <dbl> <chr>           <dbl> <dbl>
1         1    45        68        145    5.6     9 m                   1     4
2         2    50       167        166    5.4     2 f                   2     3
# ℹ 5 more variables: q2 <dbl>, q3 <dbl>, q4 <dbl>, q5 <dbl>, q6 <dbl>

# show all of columns 3-4
mydata[ ,3:4]

# A tibble: 21 × 2
   WeightPRE WeightPOST
       <dbl>      <dbl>
 1        68        145
 2       167        166
 3       143        135
 4       216        201
 5       243        223
 6       165        145
 7        60        132
 8       110        108
 9       167        158
10       190        200
# ℹ 11 more rows
…
We can use the $ “dollar sign” operator to “select” named variables out of a dataset. Let’s look at all of the ages in mydata.

# look at all of the ages
# of the 21 people in mydata
mydata$Age

 [1] 45 50 35 44 32 48 50 51 46 35 36 40 99 52 24 35 51 43 36 44 NA

We can also use these variable names with the [] brackets in base R syntax. And we use the c() combine function to help us put a list together. Let’s look at the 2 weight columns in the dataset. Put the variable names inside "" double quotes.

# show all rows for
# the 2 weight variables in mydata
mydata[ , c("WeightPRE", "WeightPOST")]

# A tibble: 21 × 2
   WeightPRE WeightPOST
       <dbl>      <dbl>
 1        68        145
 2       167        166
 3       143        135
 4       216        201
 5       243        223
 6       165        145
 7        60        132
 8       110        108
 9       167        158
10       190        200
# ℹ 11 more rows
…
Pick columns using dplyr::select()

Instead of using the base R $ selector, the dplyr package has a select() function where you simply choose variables using their name. Let’s look at Height and q1 from the mydata dataset.

Using package::function() syntax

It is good coding practice, especially when loading several packages at once into your computing session, the make sure you are calling the exact function you want from a specific package. So, I’m using the syntax of package::function() to help keep track of which package and which function is being used below.

# load dplyr package
library(dplyr)

# select Height and q1 from mydata
dplyr::select(mydata, c(Height, q1))

# A tibble: 21 × 2
   Height    q1
    <dbl> <dbl>
 1    5.6     4
 2    5.4     3
 3    5.6     3
 4    5.6     4
 5    6       5
 6    5.2     2
 7    3.3     3
 8    5.1     1
 9    5.5     1
10    5.8     4
# ℹ 11 more rows

Workflow using the pipe %>% operator

Another improvement of the tidyverse approach of R programming is to use the pipe %>% operator. Basically what this syntax does is take the results from “A” and pipe it into –> the next “B” function, e.g. A %>% B so we can begin to “daisy-chain” a sequence of programming steps together into a logical workflow and is easy to “read” and follow.

Here is a working exmaple to show the same variable selection process using the dplyr::select() function. The code below takes the mydata dataset and pipes %>% it into the select() function. We were also able to drop using the c() function here.

# select Height and q1 from mydata
mydata %>% dplyr::select(Height, q1)

# A tibble: 21 × 2
   Height    q1
    <dbl> <dbl>
 1    5.6     4
 2    5.4     3
 3    5.6     3
 4    5.6     4
 5    6       5
 6    5.2     2
 7    3.3     3
 8    5.1     1
 9    5.5     1
10    5.8     4
# ℹ 11 more rows
…
